%YAML 1.1
%TAG !u! tag:unity3d.com,2011:
--- !u!74 &7400000
AnimationClip:
  m_ObjectHideFlags: 0
  m_PrefabParentObject: {fileID: 0}
  m_PrefabInternal: {fileID: 0}
  m_Name: LongToothJump2
  serializedVersion: 6
  m_Legacy: 0
  m_Compressed: 0
  m_UseHighQualityCurve: 1
  m_RotationCurves: []
  m_CompressedRotationCurves: []
  m_EulerCurves: []
  m_PositionCurves: []
  m_ScaleCurves: []
  m_FloatCurves: []
  m_PPtrCurves:
  - curve:
    - time: 0
      value: {fileID: 21300000, guid: 7ab88ab4de7f6e54781f1007003f531a, type: 3}
    - time: 0.083333336
      value: {fileID: 21300000, guid: 9464e110fd9e166409527ebfee79aa98, type: 3}
    - time: 0.16666667
      value: {fileID: 21300000, guid: 2fd3ada241373b44ab0a7dddeb9bf94a, type: 3}
    - time: 0.25
      value: {fileID: 21300000, guid: 6e16b0a153518294aac6ad42093d7c74, type: 3}
    - time: 0.33333334
      value: {fileID: 21300000, guid: f2b369599c8dc9040bd3c6f8b72126ce, type: 3}
    - time: 0.41666666
      value: {fileID: 21300000, guid: 0f6c4ffc1fbf5544da64ac3c70cacd89, type: 3}
    - time: 0.5
      value: {fileID: 21300000, guid: de9b3d2fdbaa52d4b8bbc12140e96f1f, type: 3}
    - time: 0.5833333
      value: {fileID: 21300000, guid: 789bf36cf08386f48bc5c4a695380b28, type: 3}
    - time: 0.6666667
      value: {fileID: 21300000, guid: 93f210316c40ca544a30b5d3ebdeb007, type: 3}
    - time: 0.75
      value: {fileID: 21300000, guid: ab31737a6d1444a40835efed40ba80ea, type: 3}
    - time: 0.8333333
      value: {fileID: 21300000, guid: 6072095ecb2630e4eb17500799a684a8, type: 3}
    - time: 0.9166667
      value: {fileID: 21300000, guid: 4bdbd58b7f2034b4d9654c81382d0ef3, type: 3}
    - time: 1
      value: {fileID: 21300000, guid: 4ea2d956f2922374cb3582ae576fd9b8, type: 3}
    - time: 1.0833334
      value: {fileID: 21300000, guid: 07a461e233c76ad4bb5b419faac8d282, type: 3}
    - time: 1.1666666
      value: {fileID: 21300000, guid: adf1629f0fa1b304d9a25cc5cfa88c1f, type: 3}
    - time: 1.25
      value: {fileID: 21300000, guid: 0ee87a3a7ee1fa8489a814323a5b1a36, type: 3}
    - time: 1.3333334
      value: {fileID: 21300000, guid: 2dadf48c9fb765445b229f064a064787, type: 3}
    - time: 1.4166666
      value: {fileID: 21300000, guid: 8895335ce5910b449a446ee0fca865d9, type: 3}
    - time: 1.5
      value: {fileID: 21300000, guid: a29a1ae36ed12e846a88cd6f0f9c27e1, type: 3}
    - time: 1.5833334
      value: {fileID: 21300000, guid: d9c1b568dd58a89428ca0f1c6483c64f, type: 3}
    - time: 1.6666666
      value: {fileID: 21300000, guid: 110dc1d9327564147a70e93ab3b55538, type: 3}
    - time: 1.75
      value: {fileID: 21300000, guid: 69f457b883af97f4e833ed60618ae301, type: 3}
    - time: 1.8333334
      value: {fileID: 21300000, guid: a795352dd0c0012499fbd559fd5dbff7, type: 3}
    - time: 1.9166666
      value: {fileID: 21300000, guid: 31286bf1f4b3f064abf22b622b41500d, type: 3}
    - time: 2
      value: {fileID: 21300000, guid: a739c806ca17b0b43a827f38db7f1fab, type: 3}
    - time: 2.0833333
      value: {fileID: 21300000, guid: 1b16e7c07570a114a8196972e274af9c, type: 3}
    - time: 2.1666667
      value: {fileID: 21300000, guid: fe0de064e5e9ac64da6aebbe3315e5ac, type: 3}
    - time: 2.25
      value: {fileID: 21300000, guid: 9ecef3b3ce6597443a4e5a8216a47546, type: 3}
    - time: 2.3333333
      value: {fileID: 21300000, guid: 2989974d71ad525439e9a85a9be08cb4, type: 3}
    - time: 2.4166667
      value: {fileID: 21300000, guid: fad068a8833559e4383c61961dc96829, type: 3}
    - time: 2.5
      value: {fileID: 21300000, guid: 6fe3e04d7ff2e674aac34ec9d824d67a, type: 3}
    - time: 2.5833333
      value: {fileID: 21300000, guid: 8cad79cd99732f64f92fe221b4159f7e, type: 3}
    - time: 2.6666667
      value: {fileID: 21300000, guid: eb588107b02fad847a299b5823805bb6, type: 3}
    - time: 2.75
      value: {fileID: 21300000, guid: da50e52b1117b7543a72f6f1b68e45d3, type: 3}
    - time: 2.8333333
      value: {fileID: 21300000, guid: e3d3856a6c2c4f54c8b513eef7d86d31, type: 3}
    - time: 2.9166667
      value: {fileID: 21300000, guid: 66d33cf00402e0c42bdeceacf6989471, type: 3}
    - time: 3
      value: {fileID: 21300000, guid: 5b336a1377839d74aa2c44eb9caf1a56, type: 3}
    - time: 3.0833333
      value: {fileID: 21300000, guid: 1b99e3fdc3e32374a9dac8fab98e51d0, type: 3}
    - time: 3.1666667
      value: {fileID: 21300000, guid: 4614b13fb4c74d74195a7ff9b4201a6b, type: 3}
    - time: 3.25
      value: {fileID: 21300000, guid: 0b3e9af678ee2ad4284142264eca32bd, type: 3}
    - time: 3.3333333
      value: {fileID: 21300000, guid: ceb7f0a778055624b81a4e8f2677ad0a, type: 3}
    - time: 3.4166667
      value: {fileID: 21300000, guid: 8c87a95fb1a2dcc418eaf08f98022f4d, type: 3}
    - time: 3.5
      value: {fileID: 21300000, guid: 7a83607f50f12a34eb93b59c3c77d6f7, type: 3}
    - time: 3.5833333
      value: {fileID: 21300000, guid: 3ed4ebe2c5bc9a4438abf0e37cb367e3, type: 3}
    - time: 3.6666667
      value: {fileID: 21300000, guid: 0a21eae65d788554cb848b627a643225, type: 3}
    - time: 3.75
      value: {fileID: 21300000, guid: 191e67c2154c7874cac3350519840f33, type: 3}
    - time: 3.8333333
      value: {fileID: 21300000, guid: d6bdce9e83ca7104c998254c78c07b67, type: 3}
    - time: 3.9166667
      value: {fileID: 21300000, guid: 65697b368db30e5469e5c6e8c012f159, type: 3}
    - time: 4
      value: {fileID: 21300000, guid: 3c4d9c6e15a47914e9b5844d936769d4, type: 3}
    - time: 4.0833335
      value: {fileID: 21300000, guid: ac5acff295a4e6342a600d53fb800e60, type: 3}
    - time: 4.1666665
      value: {fileID: 21300000, guid: 125ff31a3f8ebda468dd5c480874f90f, type: 3}
    attribute: m_Sprite
    path: 
    classID: 212
    script: {fileID: 0}
  m_SampleRate: 12
  m_WrapMode: 0
  m_Bounds:
    m_Center: {x: 0, y: 0, z: 0}
    m_Extent: {x: 0, y: 0, z: 0}
  m_ClipBindingConstant:
    genericBindings:
    - serializedVersion: 2
      path: 0
      attribute: 0
      script: {fileID: 0}
      typeID: 212
      customType: 23
      isPPtrCurve: 1
    pptrCurveMapping:
    - {fileID: 21300000, guid: 7ab88ab4de7f6e54781f1007003f531a, type: 3}
    - {fileID: 21300000, guid: 9464e110fd9e166409527ebfee79aa98, type: 3}
    - {fileID: 21300000, guid: 2fd3ada241373b44ab0a7dddeb9bf94a, type: 3}
    - {fileID: 21300000, guid: 6e16b0a153518294aac6ad42093d7c74, type: 3}
    - {fileID: 21300000, guid: f2b369599c8dc9040bd3c6f8b72126ce, type: 3}
    - {fileID: 21300000, guid: 0f6c4ffc1fbf5544da64ac3c70cacd89, type: 3}
    - {fileID: 21300000, guid: de9b3d2fdbaa52d4b8bbc12140e96f1f, type: 3}
    - {fileID: 21300000, guid: 789bf36cf08386f48bc5c4a695380b28, type: 3}
    - {fileID: 21300000, guid: 93f210316c40ca544a30b5d3ebdeb007, type: 3}
    - {fileID: 21300000, guid: ab31737a6d1444a40835efed40ba80ea, type: 3}
    - {fileID: 21300000, guid: 6072095ecb2630e4eb17500799a684a8, type: 3}
    - {fileID: 21300000, guid: 4bdbd58b7f2034b4d9654c81382d0ef3, type: 3}
    - {fileID: 21300000, guid: 4ea2d956f2922374cb3582ae576fd9b8, type: 3}
    - {fileID: 21300000, guid: 07a461e233c76ad4bb5b419faac8d282, type: 3}
    - {fileID: 21300000, guid: adf1629f0fa1b304d9a25cc5cfa88c1f, type: 3}
    - {fileID: 21300000, guid: 0ee87a3a7ee1fa8489a814323a5b1a36, type: 3}
    - {fileID: 21300000, guid: 2dadf48c9fb765445b229f064a064787, type: 3}
    - {fileID: 21300000, guid: 8895335ce5910b449a446ee0fca865d9, type: 3}
    - {fileID: 21300000, guid: a29a1ae36ed12e846a88cd6f0f9c27e1, type: 3}
    - {fileID: 21300000, guid: d9c1b568dd58a89428ca0f1c6483c64f, type: 3}
    - {fileID: 21300000, guid: 110dc1d9327564147a70e93ab3b55538, type: 3}
    - {fileID: 21300000, guid: 69f457b883af97f4e833ed60618ae301, type: 3}
    - {fileID: 21300000, guid: a795352dd0c0012499fbd559fd5dbff7, type: 3}
    - {fileID: 21300000, guid: 31286bf1f4b3f064abf22b622b41500d, type: 3}
    - {fileID: 21300000, guid: a739c806ca17b0b43a827f38db7f1fab, type: 3}
    - {fileID: 21300000, guid: 1b16e7c07570a114a8196972e274af9c, type: 3}
    - {fileID: 21300000, guid: fe0de064e5e9ac64da6aebbe3315e5ac, type: 3}
    - {fileID: 21300000, guid: 9ecef3b3ce6597443a4e5a8216a47546, type: 3}
    - {fileID: 21300000, guid: 2989974d71ad525439e9a85a9be08cb4, type: 3}
    - {fileID: 21300000, guid: fad068a8833559e4383c61961dc96829, type: 3}
    - {fileID: 21300000, guid: 6fe3e04d7ff2e674aac34ec9d824d67a, type: 3}
    - {fileID: 21300000, guid: 8cad79cd99732f64f92fe221b4159f7e, type: 3}
    - {fileID: 21300000, guid: eb588107b02fad847a299b5823805bb6, type: 3}
    - {fileID: 21300000, guid: da50e52b1117b7543a72f6f1b68e45d3, type: 3}
    - {fileID: 21300000, guid: e3d3856a6c2c4f54c8b513eef7d86d31, type: 3}
    - {fileID: 21300000, guid: 66d33cf00402e0c42bdeceacf6989471, type: 3}
    - {fileID: 21300000, guid: 5b336a1377839d74aa2c44eb9caf1a56, type: 3}
    - {fileID: 21300000, guid: 1b99e3fdc3e32374a9dac8fab98e51d0, type: 3}
    - {fileID: 21300000, guid: 4614b13fb4c74d74195a7ff9b4201a6b, type: 3}
    - {fileID: 21300000, guid: 0b3e9af678ee2ad4284142264eca32bd, type: 3}
    - {fileID: 21300000, guid: ceb7f0a778055624b81a4e8f2677ad0a, type: 3}
    - {fileID: 21300000, guid: 8c87a95fb1a2dcc418eaf08f98022f4d, type: 3}
    - {fileID: 21300000, guid: 7a83607f50f12a34eb93b59c3c77d6f7, type: 3}
    - {fileID: 21300000, guid: 3ed4ebe2c5bc9a4438abf0e37cb367e3, type: 3}
    - {fileID: 21300000, guid: 0a21eae65d788554cb848b627a643225, type: 3}
    - {fileID: 21300000, guid: 191e67c2154c7874cac3350519840f33, type: 3}
    - {fileID: 21300000, guid: d6bdce9e83ca7104c998254c78c07b67, type: 3}
    - {fileID: 21300000, guid: 65697b368db30e5469e5c6e8c012f159, type: 3}
    - {fileID: 21300000, guid: 3c4d9c6e15a47914e9b5844d936769d4, type: 3}
    - {fileID: 21300000, guid: ac5acff295a4e6342a600d53fb800e60, type: 3}
    - {fileID: 21300000, guid: 125ff31a3f8ebda468dd5c480874f90f, type: 3}
  m_AnimationClipSettings:
    serializedVersion: 2
    m_AdditiveReferencePoseClip: {fileID: 0}
    m_AdditiveReferencePoseTime: 0
    m_StartTime: 0
    m_StopTime: 4.25
    m_OrientationOffsetY: 0
    m_Level: 0
    m_CycleOffset: 0
    m_HasAdditiveReferencePose: 0
    m_LoopTime: 1
    m_LoopBlend: 0
    m_LoopBlendOrientation: 0
    m_LoopBlendPositionY: 0
    m_LoopBlendPositionXZ: 0
    m_KeepOriginalOrientation: 0
    m_KeepOriginalPositionY: 1
    m_KeepOriginalPositionXZ: 0
    m_HeightFromFeet: 0
    m_Mirror: 0
  m_EditorCurves: []
  m_EulerEditorCurves: []
  m_HasGenericRootTransform: 0
  m_HasMotionFloatCurves: 0
  m_GenerateMotionCurves: 0
  m_Events: []
